{
    "abs-path": {
        "type": "string",
        "description": "absolute path (must begin with a single '/')",
        "pattern": "^/([^/].*)?$"
    },
    "rel-path": {
        "type": "string",
        "description": "relative path (must begin with './' or '../')",
        "pattern": "^\\.\\.?/.*$"
    },
    "http-url": {
        "type": "string",
        "description": "HTTP(S) address (must begin with http:// or https://)",
        "pattern": "^https?://.*$"
    },
    "file-url": {
        "type": "string",
        "description": "local file URL (must begin with file://)",
        "pattern": "^file://[^/]*/.*$"
    },
    "wildland-url": {
        "type": "string",
        "description": "Wildland URL (must begin with wildland: and containt at least three parts separated by ':'; example URLs: wildland::/data/books: ; wildland:@default:/data/books:/file.txt",
        "pattern": "^wildland:.*:.+:.*$"
    },
    "linked-file": {
        "type": "object",
        "description": "file from a storage",
        "required": ["object", "storage", "file"],
        "properties": {
            "object": {
                "const": "link"
            },
            "storage": {
                "description": "inline storage containing linked file",
                "oneOf": [
                    {"$ref": "/schemas/storage.schema.json#definitions/storage-inline"},
                    {"$ref": "/schemas/types.json#encrypted" }
                ]
            },
            "file": {
                "description": "absolute path to manifest file in storage, e.g. /manifest.container.yaml or /subdir/manifest.container.yaml; must begin with /",
                "$ref": "#/abs-path"
            }
        }

    },
    "url": {
        "description": "HTTP, file URL or wildland URL",
        "oneOf": [
            { "$ref": "#/http-url" },
            { "$ref": "#/file-url" },
            { "$ref": "#/wildland-url" }
        ]
    },
    "manifest-url": {
        "description": "URL to a manifest file or a link to manifest file",
        "oneOf": [
            { "$ref": "#/url" },
            { "$ref": "#/linked-file" }
        ]
    },
    "fingerprint": {
        "type": "string",
        "description": "key fingerprint (must begin with 0x)",
        "pattern": "^0x[0-9a-f]+$"
    },
    "access-full": {
        "type": "object",
        "description": "access entry for full access",
        "properties": {
            "user": {
                "const": "*"
            }
        }
    },
    "access-user": {
        "type": "object",
        "description": "access entry for a user",
        "properties": {
            "user": {
                "$ref": "#/fingerprint"
            }
        }
    },
    "access": {
        "oneOf": [
            {
                "type": "array",
                "minItems": 1,
                "maxItems": 1,
                "items": {"$ref":  "#/access-full"},
                "description": "Open access to manifest (no encryption)"
            },
            {
                "type": "array",
                "items": {"$ref":  "#/access-user"},
                "minItems": 0,
                "description": "list of users with access to the manifest (owner always has access and does not have to be listed here)"
            }
        ],
        "description": "complete access entry"
    },
    "encrypted": {
        "type": "object",
        "description": "encrypted data",
        "required": [
            "encrypted"
        ],
        "properties": {
            "encrypted": {
                "type": "object",
                "required": [
                    "encrypted-data",
                    "encrypted-keys"
                ],
                "properties": {
                    "encrypted-data": {
                        "type": "string"
                    },
                    "encrypted-keys": {
                        "type": "array",
                        "items": {
                            "type": "string"
                        }
                    }
                }
            }
        }
    },
    "version": {
        "const": "1",
        "description": "manifest version"
    },
    "pattern-glob": {
        "type": "object",
        "required": ["type", "path"],
        "properties": {
            "type": {
                "const": "glob"
            },
            "path": {
                "type": "string",
                "description": "An absolute path that can contain '*' and '{path}'. Default is '/*.{object-type}.yaml'.",
                "pattern": "^/.*$"
                }
            },
        "additionalProperties": false
    },
    "pattern-list": {
        "type": "object",
        "required": ["type", "paths"],
        "properties": {
            "type": {
                "const": "list"
            },
            "paths": {
                "type": "array",
                "items": { "$ref": "types.json#abs-path"},
                "description": "List of paths to manifest files; must consist of absolute paths to objects inside the storage'."
                }
            },
        "additionalProperties": false
    },
    "reference-container": {
        "oneOf": [
            {"$ref": "/schemas/types.json#url"},
            {"$ref": "/schemas/container.schema.json"}
        ]
    }
}
